EESchema Schematic File Version 4
EELAYER 30 0
EELAYER END
$Descr A4 11693 8268
encoding utf-8
Sheet 1 1
Title "LCD and Numitron Dimmer"
Date ""
Rev ""
Comp ""
Comment1 ""
Comment2 ""
Comment3 ""
Comment4 ""
$EndDescr
$Comp
L Connector_Generic:Conn_01x02 J1
U 1 1 62A74F62
P 10050 3850
F 0 "J1" H 10050 3950 50  0000 C CNN
F 1 "Conn_01x02" V 10000 3800 50  0000 C CNN
F 2 "Connector_Molex:Molex_KK-254_AE-6410-02A_1x02_P2.54mm_Vertical" H 10050 3850 50  0001 C CNN
F 3 "~" H 10050 3850 50  0001 C CNN
	1    10050 3850
	1    0    0    -1  
$EndComp
$Comp
L Transistor_BJT:BC547 Q2
U 1 1 62A766E6
P 9300 3900
F 0 "Q2" H 9500 3975 50  0000 L CNN
F 1 "BC547" H 9500 3900 50  0000 L CNN
F 2 "Package_TO_SOT_THT:TO-92_Inline" H 9500 3825 50  0001 L CIN
F 3 "https://www.onsemi.com/pub/Collateral/BC550-D.pdf" H 9300 3900 50  0001 L CNN
	1    9300 3900
	1    0    0    -1  
$EndComp
Wire Wire Line
	9400 3700 9650 3700
Wire Wire Line
	9850 3700 9850 3850
Wire Wire Line
	9400 4100 9650 4100
Wire Wire Line
	9850 4100 9850 3950
$Comp
L Sensor_Optical:LDR03 R4
U 1 1 62A79219
P 8650 3600
F 0 "R4" V 8450 3600 50  0000 C CNN
F 1 "LDR03" V 8725 3600 50  0000 C TNN
F 2 "Connector_Molex:Molex_KK-254_AE-6410-02A_1x02_P2.54mm_Vertical" V 8825 3600 50  0001 C CNN
F 3 "http://www.elektronica-componenten.nl/WebRoot/StoreNL/Shops/61422969/54F1/BA0C/C664/31B9/2173/C0A8/2AB9/2AEF/LDR03IMP.pdf" H 8650 3550 50  0001 C CNN
	1    8650 3600
	1    0    0    -1  
$EndComp
$Comp
L Device:R R5
U 1 1 62A7A36E
P 8650 4250
F 0 "R5" V 8750 4250 50  0000 C CNN
F 1 "100K" V 8650 4250 50  0000 C CNN
F 2 "Resistor_THT:R_Axial_DIN0207_L6.3mm_D2.5mm_P10.16mm_Horizontal" V 8580 4250 50  0001 C CNN
F 3 "~" H 8650 4250 50  0001 C CNN
	1    8650 4250
	1    0    0    -1  
$EndComp
Wire Wire Line
	8650 4400 8650 4650
Wire Wire Line
	8650 3450 8650 3150
Wire Wire Line
	8650 3750 8650 3900
Wire Wire Line
	8650 3150 9000 3150
Wire Wire Line
	9650 3150 9650 3700
Connection ~ 9650 3700
Wire Wire Line
	9650 3700 9850 3700
Wire Wire Line
	8650 4650 9650 4650
Wire Wire Line
	9650 4650 9650 4100
Connection ~ 9650 4100
Wire Wire Line
	9650 4100 9850 4100
Wire Wire Line
	9100 3900 8650 3900
Connection ~ 8650 3900
$Comp
L power:+5V #PWR05
U 1 1 62B9DF73
P 9000 3150
F 0 "#PWR05" H 9000 3000 50  0001 C CNN
F 1 "+5V" H 9000 3300 50  0000 C CNN
F 2 "" H 9000 3150 50  0001 C CNN
F 3 "" H 9000 3150 50  0001 C CNN
	1    9000 3150
	1    0    0    -1  
$EndComp
$Comp
L Device:R R3
U 1 1 62BC0CD6
P 8250 3900
F 0 "R3" V 8350 3900 50  0000 C CNN
F 1 "10K" V 8250 3900 50  0000 C CNN
F 2 "Resistor_THT:R_Axial_DIN0207_L6.3mm_D2.5mm_P10.16mm_Horizontal" V 8180 3900 50  0001 C CNN
F 3 "~" H 8250 3900 50  0001 C CNN
	1    8250 3900
	1    0    0    -1  
$EndComp
Wire Wire Line
	8250 3750 8250 3150
Wire Wire Line
	8250 3150 8650 3150
Connection ~ 8650 3150
Wire Wire Line
	8250 4050 8250 4650
Wire Wire Line
	8250 4650 8650 4650
Connection ~ 8650 4650
$Comp
L Mikes:MCP23008 U1
U 1 1 62D1873B
P 3700 2050
F 0 "U1" H 3450 2700 50  0000 C CNN
F 1 "MCP23008" H 3650 1700 50  0000 C CNN
F 2 "Package_DIP:DIP-18_W7.62mm_LongPads" H 3700 2050 50  0001 C CNN
F 3 "" H 3700 2050 50  0001 C CNN
	1    3700 2050
	1    0    0    -1  
$EndComp
$Comp
L Diode:1N4148 D1
U 1 1 62D19AC8
P 4600 1600
F 0 "D1" H 4600 1700 50  0000 C CNN
F 1 "1N4148" H 4600 1500 50  0000 C CNN
F 2 "Diode_THT:D_DO-35_SOD27_P7.62mm_Horizontal" H 4600 1425 50  0001 C CNN
F 3 "https://assets.nexperia.com/documents/data-sheet/1N4148_1N4448.pdf" H 4600 1600 50  0001 C CNN
	1    4600 1600
	-1   0    0    1   
$EndComp
$Comp
L Diode:1N4148 D3
U 1 1 62D1B59D
P 6550 3750
F 0 "D3" H 6550 3850 50  0000 C CNN
F 1 "1N4148" H 6550 3650 50  0000 C CNN
F 2 "Diode_THT:D_DO-35_SOD27_P7.62mm_Horizontal" H 6550 3575 50  0001 C CNN
F 3 "https://assets.nexperia.com/documents/data-sheet/1N4148_1N4448.pdf" H 6550 3750 50  0001 C CNN
	1    6550 3750
	0    -1   -1   0   
$EndComp
Wire Wire Line
	5950 2300 5950 2750
$Comp
L power:GND #PWR04
U 1 1 62D1C91A
P 5950 4900
F 0 "#PWR04" H 5950 4650 50  0001 C CNN
F 1 "GND" H 5950 4750 50  0000 C CNN
F 2 "" H 5950 4900 50  0001 C CNN
F 3 "" H 5950 4900 50  0001 C CNN
	1    5950 4900
	1    0    0    -1  
$EndComp
Wire Wire Line
	4100 1600 4450 1600
Wire Wire Line
	4750 1600 5150 1600
Wire Wire Line
	5950 2750 6550 2750
Wire Wire Line
	6550 4150 5950 4150
Wire Wire Line
	5950 4050 5950 4150
Connection ~ 5950 4150
Wire Wire Line
	5950 2750 5950 3650
Connection ~ 5950 2750
Wire Wire Line
	5650 3850 5200 3850
$Comp
L power:GND #PWR01
U 1 1 62D3D612
P 3000 2450
F 0 "#PWR01" H 3000 2200 50  0001 C CNN
F 1 "GND" H 3000 2300 50  0000 C CNN
F 2 "" H 3000 2450 50  0001 C CNN
F 3 "" H 3000 2450 50  0001 C CNN
	1    3000 2450
	1    0    0    -1  
$EndComp
Wire Wire Line
	4100 1500 4300 1500
Wire Wire Line
	3250 2300 3000 2300
Wire Wire Line
	3000 2300 3000 2450
Text Notes 7000 6450 0    50   ~ 0
20mA per filamament = .02 x 8 x 4 = 640mA\nTransistor needs to be 1A type.
$Comp
L Transistor_BJT:PN2222A Q1
U 1 1 62D4EDB2
P 5850 3850
F 0 "Q1" H 6050 3925 50  0000 L CNN
F 1 "PN2222A" H 6050 3850 50  0000 L CNN
F 2 "Package_TO_SOT_THT:TO-92_Inline" H 6050 3775 50  0001 L CIN
F 3 "https://www.onsemi.com/pub/Collateral/PN2222-D.PDF" H 5850 3850 50  0001 L CNN
	1    5850 3850
	1    0    0    -1  
$EndComp
Connection ~ 9000 3150
Wire Wire Line
	9000 3150 9650 3150
$Comp
L Sensor_Optical:LDR03 R1
U 1 1 62D6D4C0
P 5200 3350
F 0 "R1" V 5000 3350 50  0000 C CNN
F 1 "LDR03" V 5275 3350 50  0000 C TNN
F 2 "Connector_Molex:Molex_KK-254_AE-6410-02A_1x02_P2.54mm_Vertical" V 5375 3350 50  0001 C CNN
F 3 "http://www.elektronica-componenten.nl/WebRoot/StoreNL/Shops/61422969/54F1/BA0C/C664/31B9/2173/C0A8/2AB9/2AEF/LDR03IMP.pdf" H 5200 3300 50  0001 C CNN
	1    5200 3350
	1    0    0    -1  
$EndComp
$Comp
L Device:R R2
U 1 1 62D6DCEA
P 5200 4300
F 0 "R2" V 5300 4300 50  0000 C CNN
F 1 "100K" V 5200 4300 50  0000 C CNN
F 2 "Resistor_THT:R_Axial_DIN0207_L6.3mm_D2.5mm_P10.16mm_Horizontal" V 5130 4300 50  0001 C CNN
F 3 "~" H 5200 4300 50  0001 C CNN
	1    5200 4300
	1    0    0    -1  
$EndComp
Wire Wire Line
	5200 4450 5200 4550
Wire Wire Line
	5200 4550 5950 4550
Wire Wire Line
	5950 4150 5950 4550
Connection ~ 5950 4550
Wire Wire Line
	5950 4550 5950 4900
Wire Wire Line
	5200 3200 5200 2950
Wire Wire Line
	5200 3500 5200 3850
Wire Wire Line
	5200 3850 5200 4150
Connection ~ 5200 3850
Wire Wire Line
	8650 3900 8650 4100
$Comp
L Diode:1N4148 D2
U 1 1 62D75352
P 6550 3300
F 0 "D2" H 6550 3400 50  0000 C CNN
F 1 "1N4148" H 6550 3200 50  0000 C CNN
F 2 "Diode_THT:D_DO-35_SOD27_P7.62mm_Horizontal" H 6550 3125 50  0001 C CNN
F 3 "https://assets.nexperia.com/documents/data-sheet/1N4148_1N4448.pdf" H 6550 3300 50  0001 C CNN
	1    6550 3300
	0    -1   -1   0   
$EndComp
Wire Wire Line
	6550 3150 6550 2750
Wire Wire Line
	6550 3450 6550 3600
Wire Wire Line
	6550 3900 6550 4150
$Comp
L Device:LED D4
U 1 1 62D7B2DB
P 10800 3900
F 0 "D4" H 10800 4000 50  0000 C CNN
F 1 "LCD" H 10800 3800 50  0000 C CNN
F 2 "Connector_Molex:Molex_KK-254_AE-6410-02A_1x02_P2.54mm_Vertical" H 10800 3900 50  0001 C CNN
F 3 "~" H 10800 3900 50  0001 C CNN
	1    10800 3900
	0    -1   -1   0   
$EndComp
$Comp
L Connector_Generic:Conn_01x02 J2
U 1 1 62D7BF32
P 10200 3850
F 0 "J2" H 10200 3950 50  0000 C CNN
F 1 "Conn_01x02" V 10100 3800 50  0000 C CNN
F 2 "Connector_Molex:Molex_KK-254_AE-6410-02A_1x02_P2.54mm_Vertical" H 10200 3850 50  0001 C CNN
F 3 "~" H 10200 3850 50  0001 C CNN
	1    10200 3850
	-1   0    0    -1  
$EndComp
Wire Wire Line
	10400 3850 10400 3750
Wire Wire Line
	10400 3750 10800 3750
Wire Wire Line
	10400 3950 10400 4050
Wire Wire Line
	10400 4050 10800 4050
$Comp
L power:+5VP #PWR03
U 1 1 62D317D5
P 5200 2950
F 0 "#PWR03" H 5200 2800 50  0001 C CNN
F 1 "+5VP" H 5200 3090 50  0000 C CNN
F 2 "" H 5200 2950 50  0001 C CNN
F 3 "" H 5200 2950 50  0001 C CNN
	1    5200 2950
	1    0    0    -1  
$EndComp
$Comp
L power:+5VP #PWR0101
U 1 1 62D41CFF
P 4300 1500
F 0 "#PWR0101" H 4300 1350 50  0001 C CNN
F 1 "+5VP" H 4300 1640 50  0000 C CNN
F 2 "" H 4300 1500 50  0001 C CNN
F 3 "" H 4300 1500 50  0001 C CNN
	1    4300 1500
	1    0    0    -1  
$EndComp
$Comp
L Mikes:DR2000 U2
U 1 1 62D56AF2
P 5450 1900
F 0 "U2" H 5300 2450 50  0000 C CNN
F 1 "DR2000" H 5700 2450 50  0000 C CNN
F 2 "Valve:Valve_ECC-83-2" H 5450 1350 50  0001 C CNN
F 3 "https://docs.broadcom.com/docs/AV02-2553EN" H 5450 1900 50  0001 C CNN
	1    5450 1900
	1    0    0    -1  
$EndComp
Wire Wire Line
	5750 2300 5950 2300
$Comp
L Diode:1N4148 D5
U 1 1 62D68F17
P 4600 1700
F 0 "D5" H 4600 1800 50  0000 C CNN
F 1 "1N4148" H 4600 1600 50  0000 C CNN
F 2 "Diode_THT:D_DO-35_SOD27_P7.62mm_Horizontal" H 4600 1525 50  0001 C CNN
F 3 "https://assets.nexperia.com/documents/data-sheet/1N4148_1N4448.pdf" H 4600 1700 50  0001 C CNN
	1    4600 1700
	-1   0    0    1   
$EndComp
$Comp
L Diode:1N4148 D6
U 1 1 62D69411
P 4600 1800
F 0 "D6" H 4600 1900 50  0000 C CNN
F 1 "1N4148" H 4600 1700 50  0000 C CNN
F 2 "Diode_THT:D_DO-35_SOD27_P7.62mm_Horizontal" H 4600 1625 50  0001 C CNN
F 3 "https://assets.nexperia.com/documents/data-sheet/1N4148_1N4448.pdf" H 4600 1800 50  0001 C CNN
	1    4600 1800
	-1   0    0    1   
$EndComp
$Comp
L Diode:1N4148 D7
U 1 1 62D69AE4
P 4600 1900
F 0 "D7" H 4600 2000 50  0000 C CNN
F 1 "1N4148" H 4600 1800 50  0000 C CNN
F 2 "Diode_THT:D_DO-35_SOD27_P7.62mm_Horizontal" H 4600 1725 50  0001 C CNN
F 3 "https://assets.nexperia.com/documents/data-sheet/1N4148_1N4448.pdf" H 4600 1900 50  0001 C CNN
	1    4600 1900
	-1   0    0    1   
$EndComp
$Comp
L Diode:1N4148 D8
U 1 1 62D6A171
P 4600 2000
F 0 "D8" H 4600 2100 50  0000 C CNN
F 1 "1N4148" H 4600 1900 50  0000 C CNN
F 2 "Diode_THT:D_DO-35_SOD27_P7.62mm_Horizontal" H 4600 1825 50  0001 C CNN
F 3 "https://assets.nexperia.com/documents/data-sheet/1N4148_1N4448.pdf" H 4600 2000 50  0001 C CNN
	1    4600 2000
	-1   0    0    1   
$EndComp
$Comp
L Diode:1N4148 D9
U 1 1 62D6A87E
P 4600 2100
F 0 "D9" H 4600 2200 50  0000 C CNN
F 1 "1N4148" H 4600 2000 50  0000 C CNN
F 2 "Diode_THT:D_DO-35_SOD27_P7.62mm_Horizontal" H 4600 1925 50  0001 C CNN
F 3 "https://assets.nexperia.com/documents/data-sheet/1N4148_1N4448.pdf" H 4600 2100 50  0001 C CNN
	1    4600 2100
	-1   0    0    1   
$EndComp
$Comp
L Diode:1N4148 D10
U 1 1 62D6AF88
P 4600 2200
F 0 "D10" H 4600 2300 50  0000 C CNN
F 1 "1N4148" H 4600 2100 50  0000 C CNN
F 2 "Diode_THT:D_DO-35_SOD27_P7.62mm_Horizontal" H 4600 2025 50  0001 C CNN
F 3 "https://assets.nexperia.com/documents/data-sheet/1N4148_1N4448.pdf" H 4600 2200 50  0001 C CNN
	1    4600 2200
	-1   0    0    1   
$EndComp
Wire Wire Line
	5150 1700 4750 1700
Wire Wire Line
	4750 1800 5150 1800
Wire Wire Line
	5150 1900 4750 1900
Wire Wire Line
	4750 2000 5150 2000
Wire Wire Line
	5150 2100 4750 2100
Wire Wire Line
	4750 2200 5150 2200
Wire Wire Line
	4450 2200 4100 2200
Wire Wire Line
	4100 2100 4450 2100
Wire Wire Line
	4450 2000 4100 2000
Wire Wire Line
	4100 1900 4450 1900
Wire Wire Line
	4450 1800 4100 1800
Wire Wire Line
	4100 1700 4450 1700
$EndSCHEMATC
