EESchema Schematic File Version 4
LIBS:I2C-IO_hat-cache
EELAYER 26 0
EELAYER END
$Descr A4 11693 8268
encoding utf-8
Sheet 1 1
Title ""
Date "15 nov 2012"
Rev "V2"
Comp ""
Comment1 ""
Comment2 ""
Comment3 ""
Comment4 ""
$EndDescr
$Comp
L power:+5V #PWR01
U 1 1 580C1B61
P 9650 1350
F 0 "#PWR01" H 9650 1200 50  0001 C CNN
F 1 "+5V" H 9650 1490 50  0000 C CNN
F 2 "NA" H 9650 1350 50  0000 C CNN
F 3 "NA" H 9650 1350 50  0000 C CNN
	1    9650 1350
	1    0    0    -1  
$EndComp
$Comp
L power:GND #PWR02
U 1 1 580C1D11
P 9550 3550
F 0 "#PWR02" H 9550 3300 50  0001 C CNN
F 1 "GND" H 9550 3400 50  0000 C CNN
F 2 "NA" H 9550 3550 50  0000 C CNN
F 3 "NA" H 9550 3550 50  0000 C CNN
	1    9550 3550
	1    0    0    -1  
$EndComp
$Comp
L power:GND #PWR03
U 1 1 580C1E01
P 8850 3550
F 0 "#PWR03" H 8850 3300 50  0001 C CNN
F 1 "GND" H 8850 3400 50  0000 C CNN
F 2 "NA" H 8850 3550 50  0000 C CNN
F 3 "NA" H 8850 3550 50  0000 C CNN
	1    8850 3550
	1    0    0    -1  
$EndComp
$Comp
L power:+3.3V #PWR04
U 1 1 580C1BC1
P 8750 1350
F 0 "#PWR04" H 8750 1200 50  0001 C CNN
F 1 "+3.3V" H 8750 1490 50  0000 C CNN
F 2 "NA" H 8750 1350 50  0000 C CNN
F 3 "NA" H 8750 1350 50  0000 C CNN
	1    8750 1350
	1    0    0    -1  
$EndComp
$Comp
L Mechanical:Mounting_Hole MK1
U 1 1 5834FB2E
P 3000 7200
F 0 "MK1" H 3100 7246 50  0000 L CNN
F 1 "M2.5" H 3100 7155 50  0000 L CNN
F 2 "MountingHole:MountingHole_2.7mm_M2.5" H 3000 7200 60  0001 C CNN
F 3 "NA" H 3000 7200 60  0001 C CNN
F 4 "NA" H 0   0   50  0001 C CNN "MFR"
F 5 "NA" H 0   0   50  0001 C CNN "MPN"
F 6 "NA" H 0   0   50  0001 C CNN "SPR"
F 7 "NA" H 0   0   50  0001 C CNN "SPN"
F 8 "NA" H 0   0   50  0001 C CNN "SPURL"
	1    3000 7200
	1    0    0    -1  
$EndComp
$Comp
L Mechanical:Mounting_Hole MK3
U 1 1 5834FBEF
P 3450 7200
F 0 "MK3" H 3550 7246 50  0000 L CNN
F 1 "M2.5" H 3550 7155 50  0000 L CNN
F 2 "MountingHole:MountingHole_2.7mm_M2.5" H 3450 7200 60  0001 C CNN
F 3 "NA" H 3450 7200 60  0001 C CNN
F 4 "NA" H 0   0   50  0001 C CNN "MFR"
F 5 "NA" H 0   0   50  0001 C CNN "MPN"
F 6 "NA" H 0   0   50  0001 C CNN "SPR"
F 7 "NA" H 0   0   50  0001 C CNN "SPN"
F 8 "NA" H 0   0   50  0001 C CNN "SPURL"
	1    3450 7200
	1    0    0    -1  
$EndComp
$Comp
L Mechanical:Mounting_Hole MK2
U 1 1 5834FC19
P 3000 7400
F 0 "MK2" H 3100 7446 50  0000 L CNN
F 1 "M2.5" H 3100 7355 50  0000 L CNN
F 2 "MountingHole:MountingHole_2.7mm_M2.5" H 3000 7400 60  0001 C CNN
F 3 "NA" H 3000 7400 60  0001 C CNN
F 4 "NA" H 0   0   50  0001 C CNN "MFR"
F 5 "NA" H 0   0   50  0001 C CNN "MPN"
F 6 "NA" H 0   0   50  0001 C CNN "SPR"
F 7 "NA" H 0   0   50  0001 C CNN "SPN"
F 8 "NA" H 0   0   50  0001 C CNN "SPURL"
	1    3000 7400
	1    0    0    -1  
$EndComp
$Comp
L Mechanical:Mounting_Hole MK4
U 1 1 5834FC4F
P 3450 7400
F 0 "MK4" H 3550 7446 50  0000 L CNN
F 1 "M2.5" H 3550 7355 50  0000 L CNN
F 2 "MountingHole:MountingHole_2.7mm_M2.5" H 3450 7400 60  0001 C CNN
F 3 "NA" H 3450 7400 60  0001 C CNN
F 4 "NA" H 0   0   50  0001 C CNN "MFR"
F 5 "NA" H 0   0   50  0001 C CNN "MPN"
F 6 "NA" H 0   0   50  0001 C CNN "SPR"
F 7 "NA" H 0   0   50  0001 C CNN "SPN"
F 8 "NA" H 0   0   50  0001 C CNN "SPURL"
	1    3450 7400
	1    0    0    -1  
$EndComp
$Comp
L Connector_Generic:Conn_02x20_Odd_Even P1
U 1 1 59AD464A
P 9150 2400
F 0 "P1" H 9200 3517 50  0000 C CNN
F 1 "Conn_02x20_Odd_Even" H 9200 3426 50  0000 C CNN
F 2 "Connector_PinSocket_2.54mm:PinSocket_2x20_P2.54mm_Vertical" H 4300 1450 50  0001 C CNN
F 3 "NA" H 4300 1450 50  0001 C CNN
F 4 "NA" H 0   0   50  0001 C CNN "MFR"
F 5 "NA" H 0   0   50  0001 C CNN "MPN"
F 6 "NA" H 0   0   50  0001 C CNN "SPR"
F 7 "NA" H 0   0   50  0001 C CNN "SPN"
F 8 "NA" H 0   0   50  0001 C CNN "SPURL"
	1    9150 2400
	1    0    0    -1  
$EndComp
$Comp
L Mikes:MCP23008 U1
U 1 1 5B4286EA
P 4600 2250
F 0 "U1" H 4850 1900 50  0000 C CNN
F 1 "MCP23008" H 4550 1900 50  0000 C CNN
F 2 "Package_DIP:DIP-18_W7.62mm" H 4600 2250 50  0001 C CNN
F 3 "NA" H 4600 2250 50  0001 C CNN
F 4 "NA" H 0   0   50  0001 C CNN "MFR"
F 5 "NA" H 0   0   50  0001 C CNN "MPN"
F 6 "RS" H 0   0   50  0001 C CNN "SPR"
F 7 "NA" H 0   0   50  0001 C CNN "SPN"
F 8 "RS" H 0   0   50  0001 C CNN "SPURL"
	1    4600 2250
	-1   0    0    -1  
$EndComp
$Comp
L power:GND #PWR0101
U 1 1 5B4301AF
P 4500 4800
F 0 "#PWR0101" H 4500 4550 50  0001 C CNN
F 1 "GND" H 4500 4650 50  0000 C CNN
F 2 "NA" H 4500 4800 50  0001 C CNN
F 3 "NA" H 4500 4800 50  0001 C CNN
	1    4500 4800
	1    0    0    -1  
$EndComp
$Comp
L Device:Jumper_NO_Small JP1
U 1 1 5B432E7D
P 5650 1900
F 0 "JP1" H 5650 1950 50  0000 C CNN
F 1 "A2" H 5850 1900 50  0000 C CNN
F 2 "Jumper:SolderJumper-2_P1.3mm_Open_Pad1.0x1.5mm" H 5650 1900 50  0001 C CNN
F 3 "~" H 5650 1900 50  0001 C CNN
F 4 "NA" H 300 0   50  0001 C CNN "MFR"
F 5 "NA" H 300 0   50  0001 C CNN "MPN"
F 6 "NA" H 300 0   50  0001 C CNN "SPR"
F 7 "NA" H 300 0   50  0001 C CNN "SPN"
F 8 "NA" H 300 0   50  0001 C CNN "SPURL"
	1    5650 1900
	1    0    0    -1  
$EndComp
$Comp
L Device:Jumper_NO_Small JP2
U 1 1 5B432EF7
P 5650 2000
F 0 "JP2" H 5650 2050 50  0000 C CNN
F 1 "A1" H 5850 2000 50  0000 C CNN
F 2 "Jumper:SolderJumper-2_P1.3mm_Open_Pad1.0x1.5mm" H 5650 2000 50  0001 C CNN
F 3 "~" H 5650 2000 50  0001 C CNN
F 4 "NA" H 300 0   50  0001 C CNN "MFR"
F 5 "NA" H 300 0   50  0001 C CNN "MPN"
F 6 "NA" H 300 0   50  0001 C CNN "SPR"
F 7 "NA" H 300 0   50  0001 C CNN "SPN"
F 8 "NA" H 300 0   50  0001 C CNN "SPURL"
	1    5650 2000
	1    0    0    -1  
$EndComp
$Comp
L Device:Jumper_NO_Small JP3
U 1 1 5B432F32
P 5650 2100
F 0 "JP3" H 5650 2150 50  0000 C CNN
F 1 "A0" H 5850 2100 50  0000 C CNN
F 2 "Jumper:SolderJumper-2_P1.3mm_Open_Pad1.0x1.5mm" H 5650 2100 50  0001 C CNN
F 3 "~" H 5650 2100 50  0001 C CNN
F 4 "NA" H 300 0   50  0001 C CNN "MFR"
F 5 "NA" H 300 0   50  0001 C CNN "MPN"
F 6 "NA" H 300 0   50  0001 C CNN "SPR"
F 7 "NA" H 300 0   50  0001 C CNN "SPN"
F 8 "NA" H 300 0   50  0001 C CNN "SPURL"
	1    5650 2100
	1    0    0    -1  
$EndComp
$Comp
L power:GND #PWR0103
U 1 1 5B43FF0D
P 7200 5250
F 0 "#PWR0103" H 7200 5000 50  0001 C CNN
F 1 "GND" H 7200 5100 50  0000 C CNN
F 2 "NA" H 7200 5250 50  0001 C CNN
F 3 "NA" H 7200 5250 50  0001 C CNN
	1    7200 5250
	1    0    0    -1  
$EndComp
$Comp
L power:+3.3V #PWR0104
U 1 1 5B43FF2C
P 7100 4100
F 0 "#PWR0104" H 7100 3950 50  0001 C CNN
F 1 "+3.3V" H 7100 4240 50  0000 C CNN
F 2 "NA" H 7100 4100 50  0000 C CNN
F 3 "NA" H 7100 4100 50  0000 C CNN
	1    7100 4100
	1    0    0    -1  
$EndComp
$Comp
L Device:R R11
U 1 1 5B443B7D
P 5400 1500
F 0 "R11" V 5350 1300 50  0000 C CNN
F 1 "10K" V 5400 1500 50  0000 C CNN
F 2 "Resistor_THT:R_Axial_DIN0204_L3.6mm_D1.6mm_P5.08mm_Horizontal" V 5330 1500 50  0001 C CNN
F 3 "~" H 5400 1500 50  0001 C CNN
F 4 "NA" H 400 250 50  0001 C CNN "MFR"
F 5 "NA" H 400 250 50  0001 C CNN "MPN"
F 6 "Rapid" H 400 250 50  0001 C CNN "SPR"
F 7 "NA" H 400 250 50  0001 C CNN "SPN"
F 8 "NA" H 400 250 50  0001 C CNN "SPURL"
	1    5400 1500
	-1   0    0    1   
$EndComp
$Comp
L Device:R R10
U 1 1 5B443C2C
P 5300 1500
F 0 "R10" V 5250 1300 50  0000 C CNN
F 1 "10K" V 5300 1500 50  0000 C CNN
F 2 "Resistor_THT:R_Axial_DIN0204_L3.6mm_D1.6mm_P5.08mm_Horizontal" V 5230 1500 50  0001 C CNN
F 3 "~" H 5300 1500 50  0001 C CNN
F 4 "NA" H 350 100 50  0001 C CNN "MFR"
F 5 "NA" H 350 100 50  0001 C CNN "MPN"
F 6 "Rapid" H 350 100 50  0001 C CNN "SPR"
F 7 "NA" H 350 100 50  0001 C CNN "SPN"
F 8 "NA" H 350 100 50  0001 C CNN "SPURL"
	1    5300 1500
	-1   0    0    1   
$EndComp
$Comp
L Device:R R9
U 1 1 5B443C95
P 5200 1500
F 0 "R9" V 5150 1350 50  0000 C CNN
F 1 "10K" V 5200 1500 50  0000 C CNN
F 2 "Resistor_THT:R_Axial_DIN0204_L3.6mm_D1.6mm_P5.08mm_Horizontal" V 5130 1500 50  0001 C CNN
F 3 "~" H 5200 1500 50  0001 C CNN
F 4 "NA" H 300 0   50  0001 C CNN "MFR"
F 5 "NA" H 300 0   50  0001 C CNN "MPN"
F 6 "Rapid" H 300 0   50  0001 C CNN "SPR"
F 7 "NA" H 300 0   50  0001 C CNN "SPN"
F 8 "NA" H 300 0   50  0001 C CNN "SPURL"
	1    5200 1500
	-1   0    0    1   
$EndComp
$Comp
L power:+5V #PWR0105
U 1 1 5B475840
P 900 2900
F 0 "#PWR0105" H 900 2750 50  0001 C CNN
F 1 "+5V" H 900 3040 50  0000 C CNN
F 2 "NA" H 900 2900 50  0001 C CNN
F 3 "NA" H 900 2900 50  0001 C CNN
	1    900  2900
	1    0    0    -1  
$EndComp
$Comp
L power:GND #PWR0106
U 1 1 5B475871
P 2150 3450
F 0 "#PWR0106" H 2150 3200 50  0001 C CNN
F 1 "GND" H 2150 3300 50  0000 C CNN
F 2 "NA" H 2150 3450 50  0001 C CNN
F 3 "NA" H 2150 3450 50  0001 C CNN
	1    2150 3450
	1    0    0    -1  
$EndComp
$Comp
L Device:R R1
U 1 1 5B4EF34E
P 2200 1350
F 0 "R1" V 2150 1500 50  0000 C CNN
F 1 "10K" V 2200 1350 50  0000 C CNN
F 2 "Resistor_THT:R_Axial_DIN0204_L3.6mm_D1.6mm_P5.08mm_Horizontal" V 2130 1350 50  0001 C CNN
F 3 "~" H 2200 1350 50  0001 C CNN
F 4 "NA" H 0   0   50  0001 C CNN "MFR"
F 5 "NA" H 0   0   50  0001 C CNN "MPN"
F 6 "Rapid" H 0   0   50  0001 C CNN "SPR"
F 7 "NA" H 0   0   50  0001 C CNN "SPN"
F 8 "NA" H 0   0   50  0001 C CNN "SPURL"
	1    2200 1350
	-1   0    0    1   
$EndComp
$Comp
L Device:R R2
U 1 1 5B4EF456
P 2300 1350
F 0 "R2" V 2250 1500 50  0000 C CNN
F 1 "10K" V 2300 1350 50  0000 C CNN
F 2 "Resistor_THT:R_Axial_DIN0204_L3.6mm_D1.6mm_P5.08mm_Horizontal" V 2230 1350 50  0001 C CNN
F 3 "~" H 2300 1350 50  0001 C CNN
F 4 "NA" H 0   0   50  0001 C CNN "MFR"
F 5 "NA" H 0   0   50  0001 C CNN "MPN"
F 6 "Rapid" H 0   0   50  0001 C CNN "SPR"
F 7 "NA" H 0   0   50  0001 C CNN "SPN"
F 8 "NA" H 0   0   50  0001 C CNN "SPURL"
	1    2300 1350
	-1   0    0    1   
$EndComp
$Comp
L Device:R R3
U 1 1 5B4EF490
P 2400 1350
F 0 "R3" V 2350 1500 50  0000 C CNN
F 1 "10K" V 2400 1350 50  0000 C CNN
F 2 "Resistor_THT:R_Axial_DIN0204_L3.6mm_D1.6mm_P5.08mm_Horizontal" V 2330 1350 50  0001 C CNN
F 3 "~" H 2400 1350 50  0001 C CNN
F 4 "NA" H 0   0   50  0001 C CNN "MFR"
F 5 "NA" H 0   0   50  0001 C CNN "MPN"
F 6 "Rapid" H 0   0   50  0001 C CNN "SPR"
F 7 "NA" H 0   0   50  0001 C CNN "SPN"
F 8 "NA" H 0   0   50  0001 C CNN "SPURL"
	1    2400 1350
	-1   0    0    1   
$EndComp
$Comp
L Device:R R4
U 1 1 5B4EF4D0
P 2500 1350
F 0 "R4" V 2450 1500 50  0000 C CNN
F 1 "10K" V 2500 1350 50  0000 C CNN
F 2 "Resistor_THT:R_Axial_DIN0204_L3.6mm_D1.6mm_P5.08mm_Horizontal" V 2430 1350 50  0001 C CNN
F 3 "~" H 2500 1350 50  0001 C CNN
F 4 "NA" H 0   0   50  0001 C CNN "MFR"
F 5 "NA" H 0   0   50  0001 C CNN "MPN"
F 6 "Rapid" H 0   0   50  0001 C CNN "SPR"
F 7 "NA" H 0   0   50  0001 C CNN "SPN"
F 8 "NA" H 0   0   50  0001 C CNN "SPURL"
	1    2500 1350
	-1   0    0    1   
$EndComp
$Comp
L Device:R R5
U 1 1 5B4EF50E
P 2600 1350
F 0 "R5" V 2550 1500 50  0000 C CNN
F 1 "10K" V 2600 1350 50  0000 C CNN
F 2 "Resistor_THT:R_Axial_DIN0204_L3.6mm_D1.6mm_P5.08mm_Horizontal" V 2530 1350 50  0001 C CNN
F 3 "~" H 2600 1350 50  0001 C CNN
F 4 "NA" H 0   0   50  0001 C CNN "MFR"
F 5 "NA" H 0   0   50  0001 C CNN "MPN"
F 6 "Rapid" H 0   0   50  0001 C CNN "SPR"
F 7 "NA" H 0   0   50  0001 C CNN "SPN"
F 8 "NA" H 0   0   50  0001 C CNN "SPURL"
	1    2600 1350
	-1   0    0    1   
$EndComp
$Comp
L Device:R R6
U 1 1 5B4EF552
P 2700 1350
F 0 "R6" V 2650 1500 50  0000 C CNN
F 1 "10K" V 2700 1350 50  0000 C CNN
F 2 "Resistor_THT:R_Axial_DIN0204_L3.6mm_D1.6mm_P5.08mm_Horizontal" V 2630 1350 50  0001 C CNN
F 3 "~" H 2700 1350 50  0001 C CNN
F 4 "NA" H 0   0   50  0001 C CNN "MFR"
F 5 "NA" H 0   0   50  0001 C CNN "MPN"
F 6 "Rapid" H 0   0   50  0001 C CNN "SPR"
F 7 "NA" H 0   0   50  0001 C CNN "SPN"
F 8 "NA" H 0   0   50  0001 C CNN "SPURL"
	1    2700 1350
	-1   0    0    1   
$EndComp
$Comp
L Device:R R7
U 1 1 5B4EF598
P 2800 1350
F 0 "R7" V 2750 1500 50  0000 C CNN
F 1 "10K" V 2800 1350 50  0000 C CNN
F 2 "Resistor_THT:R_Axial_DIN0204_L3.6mm_D1.6mm_P5.08mm_Horizontal" V 2730 1350 50  0001 C CNN
F 3 "~" H 2800 1350 50  0001 C CNN
F 4 "NA" H 0   0   50  0001 C CNN "MFR"
F 5 "NA" H 0   0   50  0001 C CNN "MPN"
F 6 "Rapid" H 0   0   50  0001 C CNN "SPR"
F 7 "NA" H 0   0   50  0001 C CNN "SPN"
F 8 "NA" H 0   0   50  0001 C CNN "SPURL"
	1    2800 1350
	-1   0    0    1   
$EndComp
$Comp
L Device:R R8
U 1 1 5B4EF5E0
P 2900 1350
F 0 "R8" V 2850 1500 50  0000 C CNN
F 1 "10K" V 2900 1350 50  0000 C CNN
F 2 "Resistor_THT:R_Axial_DIN0204_L3.6mm_D1.6mm_P5.08mm_Horizontal" V 2830 1350 50  0001 C CNN
F 3 "~" H 2900 1350 50  0001 C CNN
F 4 "NA" H 0   0   50  0001 C CNN "MFR"
F 5 "NA" H 0   0   50  0001 C CNN "MPN"
F 6 "Rapid" H 0   0   50  0001 C CNN "SPR"
F 7 "NA" H 0   0   50  0001 C CNN "SPN"
F 8 "NA" H 0   0   50  0001 C CNN "SPURL"
	1    2900 1350
	-1   0    0    1   
$EndComp
$Comp
L Mikes:TIANBO_HJR_1-2C K1
U 1 1 5B557DB9
P 3800 4450
F 0 "K1" H 4650 4600 50  0000 L CNN
F 1 "TIANBO_HJR_1-2C" H 3700 4350 50  0000 L CNN
F 2 "Mikee:Relay_DPDT_HJR_1-2C" H 5350 4420 50  0001 C CNN
F 3 "NA" H 3800 4450 50  0001 C CNN
F 4 "NA" H 750 900 50  0001 C CNN "MFR"
F 5 "NA" H 750 900 50  0001 C CNN "MPN"
F 6 "China" H 750 900 50  0001 C CNN "SPR"
F 7 "NA" H 750 900 50  0001 C CNN "SPN"
F 8 "NA" H 750 900 50  0001 C CNN "SPURL"
	1    3800 4450
	0    1    1    0   
$EndComp
$Comp
L Mikes:TIANBO_HJR_1-2C K2
U 1 1 5B557F82
P 5100 4450
F 0 "K2" H 5950 4600 50  0000 L CNN
F 1 "TIANBO_HJR_1-2C" H 5000 4350 50  0000 L CNN
F 2 "Mikee:Relay_DPDT_HJR_1-2C" H 6650 4420 50  0001 C CNN
F 3 "NA" H 5100 4450 50  0001 C CNN
F 4 "NA" H 750 900 50  0001 C CNN "MFR"
F 5 "NA" H 750 900 50  0001 C CNN "MPN"
F 6 "China" H 750 900 50  0001 C CNN "SPR"
F 7 "NA" H 750 900 50  0001 C CNN "SPN"
F 8 "NA" H 750 900 50  0001 C CNN "SPURL"
	1    5100 4450
	0    1    1    0   
$EndComp
$Comp
L Diode:1N4001 D2
U 1 1 5B56635C
P 5100 3900
F 0 "D2" H 5250 3950 50  0000 C CNN
F 1 "1N4001" H 5100 3800 50  0000 C CNN
F 2 "Diode_THT:D_DO-35_SOD27_P7.62mm_Horizontal" H 5100 3725 50  0001 C CNN
F 3 "http://www.vishay.com/docs/88503/1n4001.pdf" H 5100 3900 50  0001 C CNN
F 4 "NA" H 750 900 50  0001 C CNN "MFR"
F 5 "NA" H 750 900 50  0001 C CNN "MPN"
F 6 "NA" H 750 900 50  0001 C CNN "SPR"
F 7 "NA" H 750 900 50  0001 C CNN "SPN"
F 8 "NA" H 750 900 50  0001 C CNN "SPURL"
	1    5100 3900
	1    0    0    -1  
$EndComp
$Comp
L Diode:1N4001 D1
U 1 1 5B566445
P 3800 3800
F 0 "D1" H 3800 3900 50  0000 C CNN
F 1 "1N4001" H 3800 3700 50  0000 C CNN
F 2 "Diode_THT:D_DO-35_SOD27_P7.62mm_Horizontal" H 3800 3625 50  0001 C CNN
F 3 "http://www.vishay.com/docs/88503/1n4001.pdf" H 3800 3800 50  0001 C CNN
F 4 "NA" H 750 900 50  0001 C CNN "MFR"
F 5 "NA" H 750 900 50  0001 C CNN "MPN"
F 6 "NA" H 750 900 50  0001 C CNN "SPR"
F 7 "NA" H 750 900 50  0001 C CNN "SPN"
F 8 "NA" H 750 900 50  0001 C CNN "SPURL"
	1    3800 3800
	1    0    0    -1  
$EndComp
$Comp
L Transistor_BJT:BC549 Q2
U 1 1 5B566C46
P 5800 4450
F 0 "Q2" H 6000 4525 50  0000 L CNN
F 1 "BC549" H 6000 4450 50  0000 L CNN
F 2 "Package_TO_SOT_THT:TO-92_Inline" H 6000 4375 50  0001 L CIN
F 3 "http://www.fairchildsemi.com/ds/BC/BC547.pdf" H 5800 4450 50  0001 L CNN
F 4 "NA" H 750 900 50  0001 C CNN "MFR"
F 5 "NA" H 750 900 50  0001 C CNN "MPN"
F 6 "NA" H 750 900 50  0001 C CNN "SPR"
F 7 "NA" H 750 900 50  0001 C CNN "SPN"
F 8 "NA" H 750 900 50  0001 C CNN "SPURL"
	1    5800 4450
	1    0    0    -1  
$EndComp
$Comp
L Transistor_BJT:BC549 Q1
U 1 1 5B566DA7
P 4400 4450
F 0 "Q1" H 4600 4525 50  0000 L CNN
F 1 "BC549" H 4600 4450 50  0000 L CNN
F 2 "Package_TO_SOT_THT:TO-92_Inline" H 4600 4375 50  0001 L CIN
F 3 "http://www.fairchildsemi.com/ds/BC/BC547.pdf" H 4400 4450 50  0001 L CNN
F 4 "NA" H 750 900 50  0001 C CNN "MFR"
F 5 "NA" H 750 900 50  0001 C CNN "MPN"
F 6 "NA" H 750 900 50  0001 C CNN "SPR"
F 7 "NA" H 750 900 50  0001 C CNN "SPN"
F 8 "NA" H 750 900 50  0001 C CNN "SPURL"
	1    4400 4450
	1    0    0    -1  
$EndComp
$Comp
L power:GND #PWR0108
U 1 1 5B567104
P 5900 4800
F 0 "#PWR0108" H 5900 4550 50  0001 C CNN
F 1 "GND" H 5900 4650 50  0000 C CNN
F 2 "NA" H 5900 4800 50  0001 C CNN
F 3 "NA" H 5900 4800 50  0001 C CNN
	1    5900 4800
	1    0    0    -1  
$EndComp
$Comp
L power:GND #PWR0109
U 1 1 5B567151
P 5150 2650
F 0 "#PWR0109" H 5150 2400 50  0001 C CNN
F 1 "GND" H 5150 2500 50  0000 C CNN
F 2 "NA" H 5150 2650 50  0001 C CNN
F 3 "NA" H 5150 2650 50  0001 C CNN
	1    5150 2650
	1    0    0    -1  
$EndComp
$Comp
L power:+5V #PWR0110
U 1 1 5B58BEF9
P 3450 3800
F 0 "#PWR0110" H 3450 3650 50  0001 C CNN
F 1 "+5V" H 3450 3940 50  0000 C CNN
F 2 "NA" H 3450 3800 50  0001 C CNN
F 3 "NA" H 3450 3800 50  0001 C CNN
	1    3450 3800
	1    0    0    -1  
$EndComp
$Comp
L power:+5V #PWR0111
U 1 1 5B58BF46
P 4700 3900
F 0 "#PWR0111" H 4700 3750 50  0001 C CNN
F 1 "+5V" H 4700 4040 50  0000 C CNN
F 2 "NA" H 4700 3900 50  0001 C CNN
F 3 "NA" H 4700 3900 50  0001 C CNN
	1    4700 3900
	1    0    0    -1  
$EndComp
$Comp
L Connector_Generic:Conn_01x04 J7
U 1 1 5B5E2FCE
P 3750 5800
F 0 "J7" H 3750 6000 50  0000 C CNN
F 1 "Conn_01x04" H 3750 5500 50  0000 C CNN
F 2 "Connector_Molex:Molex_KK-254_AE-6410-04A_1x04_P2.54mm_Vertical" H 3750 5800 50  0001 C CNN
F 3 "~" H 3750 5800 50  0001 C CNN
F 4 "Molex" H 750 900 50  0001 C CNN "MFR"
F 5 "NA" H 750 900 50  0001 C CNN "MPN"
F 6 "Rapid" H 750 900 50  0001 C CNN "SPR"
F 7 "NA" H 750 900 50  0001 C CNN "SPN"
F 8 "NA" H 750 900 50  0001 C CNN "SPURL"
	1    3750 5800
	0    -1   1    0   
$EndComp
$Comp
L Connector_Generic:Conn_01x04 J8
U 1 1 5B5E30DA
P 5050 5750
F 0 "J8" H 5050 5950 50  0000 C CNN
F 1 "Conn_01x04" H 5050 5450 50  0000 C CNN
F 2 "Connector_Molex:Molex_KK-254_AE-6410-04A_1x04_P2.54mm_Vertical" H 5050 5750 50  0001 C CNN
F 3 "~" H 5050 5750 50  0001 C CNN
F 4 "Molex" H 750 900 50  0001 C CNN "MFR"
F 5 "NA" H 750 900 50  0001 C CNN "MPN"
F 6 "Rapid" H 750 900 50  0001 C CNN "SPR"
F 7 "NA" H 750 900 50  0001 C CNN "SPN"
F 8 "NA" H 750 900 50  0001 C CNN "SPURL"
	1    5050 5750
	0    -1   1    0   
$EndComp
$Comp
L Device:Jumper_NO_Small JP5
U 1 1 5B5E31EE
P 5100 3700
F 0 "JP5" H 5100 3780 50  0000 C CNN
F 1 "R0" H 5110 3640 50  0000 C CNN
F 2 "Jumper:SolderJumper-2_P1.3mm_Open_Pad1.0x1.5mm" H 5100 3700 50  0001 C CNN
F 3 "~" H 5100 3700 50  0001 C CNN
F 4 "NA" H 750 900 50  0001 C CNN "MFR"
F 5 "NA" H 750 900 50  0001 C CNN "MPN"
F 6 "NA" H 750 900 50  0001 C CNN "SPR"
F 7 "NA" H 750 900 50  0001 C CNN "SPN"
F 8 "NA" H 750 900 50  0001 C CNN "SPURL"
	1    5100 3700
	1    0    0    -1  
$EndComp
$Comp
L Device:Jumper_NO_Small JP4
U 1 1 5B5E337C
P 4200 3750
F 0 "JP4" H 4200 3830 50  0000 C CNN
F 1 "R1" H 4210 3690 50  0000 C CNN
F 2 "Jumper:SolderJumper-2_P1.3mm_Open_Pad1.0x1.5mm" H 4200 3750 50  0001 C CNN
F 3 "~" H 4200 3750 50  0001 C CNN
F 4 "NA" H 750 900 50  0001 C CNN "MFR"
F 5 "NA" H 750 900 50  0001 C CNN "MPN"
F 6 "NA" H 750 900 50  0001 C CNN "SPR"
F 7 "NA" H 750 900 50  0001 C CNN "SPN"
F 8 "NA" H 750 900 50  0001 C CNN "SPURL"
	1    4200 3750
	0    1    1    0   
$EndComp
$Comp
L power:GND #PWR0112
U 1 1 5B61EF60
P 5450 5550
F 0 "#PWR0112" H 5450 5300 50  0001 C CNN
F 1 "GND" H 5450 5400 50  0000 C CNN
F 2 "NA" H 5450 5550 50  0001 C CNN
F 3 "NA" H 5450 5550 50  0001 C CNN
	1    5450 5550
	1    0    0    -1  
$EndComp
$Comp
L power:GND #PWR0113
U 1 1 5B61EFB5
P 4100 5600
F 0 "#PWR0113" H 4100 5350 50  0001 C CNN
F 1 "GND" H 4100 5450 50  0000 C CNN
F 2 "NA" H 4100 5600 50  0001 C CNN
F 3 "NA" H 4100 5600 50  0001 C CNN
	1    4100 5600
	1    0    0    -1  
$EndComp
$Comp
L Device:Battery_Cell BT1
U 1 1 5B6B6F29
P 7950 4750
F 0 "BT1" H 8050 4850 50  0000 L CNN
F 1 "Battery_Cell" H 8050 4750 50  0000 L CNN
F 2 "Battery:BatteryHolder_LINX_BAT-HLD-012-SMT" V 7950 4810 50  0001 C CNN
F 3 "~" V 7950 4810 50  0001 C CNN
F 4 "NA" H 0   0   50  0001 C CNN "MFR"
F 5 "NA" H 0   0   50  0001 C CNN "MPN"
F 6 "NA" H 0   0   50  0001 C CNN "SPR"
F 7 "NA" H 0   0   50  0001 C CNN "SPN"
F 8 "NA" H 0   0   50  0001 C CNN "SPURL"
	1    7950 4750
	1    0    0    -1  
$EndComp
$Comp
L Timer_RTC:DS3231M U2
U 1 1 5B6B71E7
P 7200 4750
F 0 "U2" H 6900 5100 50  0000 R CNN
F 1 "DS3231M" H 7600 5100 50  0000 R CNN
F 2 "Package_SO:SOIC-16W_7.5x10.3mm_P1.27mm" H 7200 4150 50  0001 C CNN
F 3 "http://datasheets.maximintegrated.com/en/ds/DS3231.pdf" H 7470 4800 50  0001 C CNN
F 4 "Maxim" H 0   0   50  0001 C CNN "MFR"
F 5 "DS3231M" H 0   0   50  0001 C CNN "MPN"
F 6 "NA" H 0   0   50  0001 C CNN "SPR"
F 7 "NA" H 0   0   50  0001 C CNN "SPN"
F 8 "NA" H 0   0   50  0001 C CNN "SPURL"
	1    7200 4750
	1    0    0    -1  
$EndComp
$Comp
L Device:R R12
U 1 1 5B73CF26
P 6350 1400
F 0 "R12" V 6430 1400 50  0000 C CNN
F 1 "4K7" V 6350 1400 50  0000 C CNN
F 2 "Resistor_THT:R_Axial_DIN0204_L3.6mm_D1.6mm_P5.08mm_Horizontal" V 6280 1400 50  0001 C CNN
F 3 "~" H 6350 1400 50  0001 C CNN
F 4 "NA" H 0   0   50  0001 C CNN "MFR"
F 5 "NA" H 0   0   50  0001 C CNN "MPN"
F 6 "Rapid" H 0   0   50  0001 C CNN "SPR"
F 7 "NA" H 0   0   50  0001 C CNN "SPN"
F 8 "RS" H 0   0   50  0001 C CNN "SPURL"
	1    6350 1400
	1    0    0    -1  
$EndComp
$Comp
L Device:R R13
U 1 1 5B73CFD6
P 6500 1400
F 0 "R13" V 6580 1400 50  0000 C CNN
F 1 "4K7" V 6500 1400 50  0000 C CNN
F 2 "Resistor_THT:R_Axial_DIN0204_L3.6mm_D1.6mm_P5.08mm_Horizontal" V 6430 1400 50  0001 C CNN
F 3 "~" H 6500 1400 50  0001 C CNN
F 4 "NA" H 0   0   50  0001 C CNN "MFR"
F 5 "NA" H 0   0   50  0001 C CNN "MPN"
F 6 "Rapid" H 0   0   50  0001 C CNN "SPR"
F 7 "NA" H 0   0   50  0001 C CNN "SPN"
F 8 "RS" H 0   0   50  0001 C CNN "SPURL"
	1    6500 1400
	1    0    0    -1  
$EndComp
$Comp
L power:+3.3V #PWR0102
U 1 1 5B73D047
P 6350 1150
F 0 "#PWR0102" H 6350 1000 50  0001 C CNN
F 1 "+3.3V" H 6350 1290 50  0000 C CNN
F 2 "NA" H 6350 1150 50  0001 C CNN
F 3 "NA" H 6350 1150 50  0001 C CNN
	1    6350 1150
	1    0    0    -1  
$EndComp
$Comp
L Device:C C2
U 1 1 5B772AAF
P 6350 4750
F 0 "C2" H 6375 4850 50  0000 L CNN
F 1 "100nF" H 6375 4650 50  0000 L CNN
F 2 "Capacitor_SMD:C_1206_3216Metric" H 6388 4600 50  0001 C CNN
F 3 "~" H 6350 4750 50  0001 C CNN
F 4 "NA" H 0   0   50  0001 C CNN "MFR"
F 5 "NA" H 0   0   50  0001 C CNN "MPN"
F 6 "RS" H 0   0   50  0001 C CNN "SPR"
F 7 "NA" H 0   0   50  0001 C CNN "SPN"
F 8 "NA" H 0   0   50  0001 C CNN "SPURL"
	1    6350 4750
	1    0    0    -1  
$EndComp
$Comp
L Device:C C1
U 1 1 5B7AD6C3
P 3950 1900
F 0 "C1" H 3975 2000 50  0000 L CNN
F 1 "100nF" H 3975 1800 50  0000 L CNN
F 2 "Capacitor_SMD:C_1206_3216Metric" H 3988 1750 50  0001 C CNN
F 3 "~" H 3950 1900 50  0001 C CNN
F 4 "NA" H -1850 -200 50  0001 C CNN "MFR"
F 5 "NA" H -1850 -200 50  0001 C CNN "MPN"
F 6 "RS" H -1850 -200 50  0001 C CNN "SPR"
F 7 "NA" H -1850 -200 50  0001 C CNN "SPN"
F 8 "NA" H -1850 -200 50  0001 C CNN "SPURL"
	1    3950 1900
	1    0    0    -1  
$EndComp
$Comp
L Connector_Generic:Conn_01x03 J3
U 1 1 5B43838E
P 1600 3300
F 0 "J3" H 1600 3500 50  0000 C CNN
F 1 "Conn_01x03" H 1600 3100 50  0000 C CNN
F 2 "Connector_Molex:Molex_KK-254_AE-6410-03A_1x03_P2.54mm_Vertical" H 1600 3300 50  0001 C CNN
F 3 "NA" H 1600 3300 50  0001 C CNN
F 4 "Molex" H 0   0   50  0001 C CNN "MFR"
F 5 "NA" H 0   0   50  0001 C CNN "MPN"
F 6 "Rapid" H 0   0   50  0001 C CNN "SPR"
F 7 "NA" H 0   0   50  0001 C CNN "SPN"
F 8 "NA" H 0   0   50  0001 C CNN "SPURL"
	1    1600 3300
	0    1    1    0   
$EndComp
$Comp
L Connector_Generic:Conn_01x03 J2
U 1 1 5B4384C2
P 1250 3300
F 0 "J2" H 1250 3500 50  0000 C CNN
F 1 "Conn_01x03" H 1250 3100 50  0000 C CNN
F 2 "Connector_Molex:Molex_KK-254_AE-6410-03A_1x03_P2.54mm_Vertical" H 1250 3300 50  0001 C CNN
F 3 "NA" H 1250 3300 50  0001 C CNN
F 4 "Molex" H 0   0   50  0001 C CNN "MFR"
F 5 "NA" H 0   0   50  0001 C CNN "MPN"
F 6 "Rapid" H 0   0   50  0001 C CNN "SPR"
F 7 "NA" H 0   0   50  0001 C CNN "SPN"
F 8 "NA" H 0   0   50  0001 C CNN "SPURL"
	1    1250 3300
	0    1    1    0   
$EndComp
$Comp
L Connector_Generic:Conn_01x03 J1
U 1 1 5B438528
P 900 3300
F 0 "J1" H 900 3500 50  0000 C CNN
F 1 "Conn_01x03" H 900 3100 50  0000 C CNN
F 2 "Connector_Molex:Molex_KK-254_AE-6410-03A_1x03_P2.54mm_Vertical" H 900 3300 50  0001 C CNN
F 3 "NA" H 900 3300 50  0001 C CNN
F 4 "Molex" H 0   0   50  0001 C CNN "MFR"
F 5 "NA" H 0   0   50  0001 C CNN "MPN"
F 6 "Rapid" H 0   0   50  0001 C CNN "SPR"
F 7 "NA" H 0   0   50  0001 C CNN "SPN"
F 8 "NA" H 0   0   50  0001 C CNN "SPURL"
	1    900  3300
	0    1    1    0   
$EndComp
$Comp
L Connector_Generic:Conn_01x03 J4
U 1 1 5B438723
P 1950 3300
F 0 "J4" H 1950 3500 50  0000 C CNN
F 1 "Conn_01x03" H 1950 3100 50  0000 C CNN
F 2 "Connector_Molex:Molex_KK-254_AE-6410-03A_1x03_P2.54mm_Vertical" H 1950 3300 50  0001 C CNN
F 3 "NA" H 1950 3300 50  0001 C CNN
F 4 "Molex" H 0   0   50  0001 C CNN "MFR"
F 5 "NA" H 0   0   50  0001 C CNN "MPN"
F 6 "Rapid" H 0   0   50  0001 C CNN "SPR"
F 7 "NA" H 0   0   50  0001 C CNN "SPN"
F 8 "NA" H 0   0   50  0001 C CNN "SPURL"
	1    1950 3300
	0    1    1    0   
$EndComp
$Comp
L Connector_Generic:Conn_01x03 J5
U 1 1 5B517ACD
P 2400 3300
F 0 "J5" H 2400 3500 50  0000 C CNN
F 1 "Conn_01x03" H 2400 3100 50  0000 C CNN
F 2 "Connector_Molex:Molex_KK-254_AE-6410-03A_1x03_P2.54mm_Vertical" H 2400 3300 50  0001 C CNN
F 3 "NA" H 2400 3300 50  0001 C CNN
F 4 "Molex" H 0   0   50  0001 C CNN "MFR"
F 5 "NA" H 0   0   50  0001 C CNN "MPN"
F 6 "Rapid" H 0   0   50  0001 C CNN "SPR"
F 7 "NA" H 0   0   50  0001 C CNN "SPN"
F 8 "NA" H 0   0   50  0001 C CNN "SPURL"
	1    2400 3300
	0    1    1    0   
$EndComp
$Comp
L Connector_Generic:Conn_01x03 J6
U 1 1 5B517B49
P 2750 3300
F 0 "J6" H 2750 3500 50  0000 C CNN
F 1 "Conn_01x03" H 2750 3100 50  0000 C CNN
F 2 "Connector_Molex:Molex_KK-254_AE-6410-03A_1x03_P2.54mm_Vertical" H 2750 3300 50  0001 C CNN
F 3 "NA" H 2750 3300 50  0001 C CNN
F 4 "Molex" H 0   0   50  0001 C CNN "MFR"
F 5 "NA" H 0   0   50  0001 C CNN "MPN"
F 6 "Rapid" H 0   0   50  0001 C CNN "SPR"
F 7 "NA" H 0   0   50  0001 C CNN "SPN"
F 8 "NA" H 0   0   50  0001 C CNN "SPURL"
	1    2750 3300
	0    1    1    0   
$EndComp
$Comp
L Connector_Generic:Conn_01x03 J9
U 1 1 5B517BC3
P 3100 3300
F 0 "J9" H 3100 3500 50  0000 C CNN
F 1 "Conn_01x03" H 3100 3100 50  0000 C CNN
F 2 "Connector_Molex:Molex_KK-254_AE-6410-03A_1x03_P2.54mm_Vertical" H 3100 3300 50  0001 C CNN
F 3 "NA" H 3100 3300 50  0001 C CNN
F 4 "Molex" H 0   0   50  0001 C CNN "MFR"
F 5 "NA" H 0   0   50  0001 C CNN "MPN"
F 6 "Rapid" H 0   0   50  0001 C CNN "SPR"
F 7 "NA" H 0   0   50  0001 C CNN "SPN"
F 8 "NA" H 0   0   50  0001 C CNN "SPURL"
	1    3100 3300
	0    1    1    0   
$EndComp
$Comp
L Connector_Generic:Conn_01x03 J10
U 1 1 5B517C37
P 3450 3300
F 0 "J10" H 3450 3500 50  0000 C CNN
F 1 "Conn_01x03" H 3450 3100 50  0000 C CNN
F 2 "Connector_Molex:Molex_KK-254_AE-6410-03A_1x03_P2.54mm_Vertical" H 3450 3300 50  0001 C CNN
F 3 "NA" H 3450 3300 50  0001 C CNN
F 4 "Molex" H 0   0   50  0001 C CNN "MFR"
F 5 "NA" H 0   0   50  0001 C CNN "MPN"
F 6 "Rapid" H 0   0   50  0001 C CNN "SPR"
F 7 "NA" H 0   0   50  0001 C CNN "SPN"
F 8 "NA" H 0   0   50  0001 C CNN "SPURL"
	1    3450 3300
	0    1    1    0   
$EndComp
$Comp
L power:+5V #PWR0107
U 1 1 5B5E8C62
P 3950 1250
F 0 "#PWR0107" H 3950 1100 50  0001 C CNN
F 1 "+5V" H 3950 1390 50  0000 C CNN
F 2 "NA" H 3950 1250 50  0001 C CNN
F 3 "NA" H 3950 1250 50  0001 C CNN
	1    3950 1250
	1    0    0    -1  
$EndComp
Text Label 7800 1600 0    50   ~ 0
GPIO2(SDA1)
Text Label 7800 1700 0    50   ~ 0
GPIO3(SCL1)
Text Label 7800 1800 0    50   ~ 0
GPIO4(GCLK)
Text Label 7800 2000 0    50   ~ 0
GPIO17(GEN0)
Text Label 7800 2100 0    50   ~ 0
GPIO27(GEN2)
Text Label 7800 2200 0    50   ~ 0
GPIO22(GEN3)
Text Label 7800 2400 0    50   ~ 0
GPIO10(SPI0_MOSI)
Text Label 7800 2500 0    50   ~ 0
GPIO9(SPI0_MISO)
Text Label 7800 2600 0    50   ~ 0
GPIO11(SPI0_SCK)
Text Label 7800 2800 0    50   ~ 0
ID_SD
Text Label 7800 2900 0    50   ~ 0
GPIO5
Text Label 7800 3000 0    50   ~ 0
GPIO6
Text Label 7800 3100 0    50   ~ 0
GPIO13(PWM1)
Text Label 7800 3200 0    50   ~ 0
GPIO19(SPI1_MISO)
Text Label 7800 3300 0    50   ~ 0
GPIO26
Text Label 10500 3300 2    50   ~ 0
GPIO20(SPI1_MOSI)
Text Label 10500 3200 2    50   ~ 0
GPIO16
Text Label 10500 3000 2    50   ~ 0
GPIO12(PWM0)
Text Label 10500 2800 2    50   ~ 0
ID_SC
Text Label 10500 2700 2    50   ~ 0
GPIO7(SPI1_CE_N)
Text Label 10500 2600 2    50   ~ 0
GPIO8(SPI0_CE_N)
Text Label 10500 2500 2    50   ~ 0
GPIO25(GEN6)
Text Label 10500 2300 2    50   ~ 0
GPIO24(GEN5)
Text Label 10500 2200 2    50   ~ 0
GPIO23(GEN4)
Text Label 10500 2000 2    50   ~ 0
GPIO18(GEN1)(PWM0)
Text Label 10500 1900 2    50   ~ 0
GPIO15(RXD0)
Text Label 10500 1800 2    50   ~ 0
GPIO14(TXD0)
Text Notes 650  7600 0    50   ~ 0
ID_SD and ID_SC PINS:\nThese pins are reserved for HAT ID EEPROM.\n\nAt boot time this I2C interface will be\ninterrogated to look for an EEPROM\nthat identifes the attached board and\nallows automagic setup of the GPIOs\n(and optionally, Linux drivers).\n\nDO NOT USE these pins for anything other\nthan attaching an I2C ID EEPROM. Leave\nunconnected if ID EEPROM not required.
Text Notes 3000 7050 0    50   ~ 0
Mounting Holes
Text Label 10500 3400 2    50   ~ 0
GPIO21(SPI1_SCK)
Wire Wire Line
	9650 1350 9650 1500
Wire Wire Line
	9650 1500 9450 1500
Wire Wire Line
	9650 1600 9450 1600
Wire Wire Line
	9550 3100 9450 3100
Wire Wire Line
	9550 2900 9450 2900
Wire Wire Line
	9550 2400 9450 2400
Wire Wire Line
	9550 2100 9450 2100
Wire Wire Line
	8850 3400 8950 3400
Wire Wire Line
	8850 2700 8950 2700
Wire Wire Line
	8750 2300 8950 2300
Wire Wire Line
	8850 1900 8950 1900
Wire Wire Line
	7800 1800 8950 1800
Wire Wire Line
	7800 2200 8950 2200
Wire Wire Line
	8950 2400 7800 2400
Wire Wire Line
	7800 2500 8950 2500
Wire Wire Line
	7800 2600 8950 2600
Wire Wire Line
	8950 2800 7800 2800
Wire Wire Line
	7800 2900 8950 2900
Wire Wire Line
	7800 3000 8950 3000
Wire Wire Line
	8950 3100 7800 3100
Wire Wire Line
	7800 3200 8950 3200
Wire Wire Line
	7800 3300 8950 3300
Wire Wire Line
	9450 3200 10500 3200
Wire Wire Line
	9450 3300 10500 3300
Wire Wire Line
	9450 2700 10500 2700
Wire Wire Line
	9450 2800 10500 2800
Wire Wire Line
	9450 2500 10500 2500
Wire Wire Line
	9450 2600 10500 2600
Wire Wire Line
	9450 2200 10500 2200
Wire Wire Line
	9450 2300 10500 2300
Wire Wire Line
	9450 1900 10500 1900
Wire Wire Line
	9450 2000 10500 2000
Wire Wire Line
	9450 1800 10500 1800
Wire Wire Line
	9450 3000 10500 3000
Wire Wire Line
	9550 1700 9450 1700
Wire Wire Line
	9450 3400 10500 3400
Wire Wire Line
	9650 1500 9650 1600
Wire Wire Line
	8850 3400 8850 3550
Wire Wire Line
	7100 1600 8950 1600
Wire Wire Line
	5050 2500 5150 2500
Wire Wire Line
	5150 2500 5150 2650
Wire Wire Line
	5750 1900 5750 2000
Wire Wire Line
	5750 2000 5750 2100
Wire Wire Line
	5750 2100 5750 2500
Wire Wire Line
	8850 2700 8850 3400
Wire Wire Line
	8850 1900 8850 2700
Wire Wire Line
	7100 3600 7100 1800
Wire Wire Line
	7200 1700 8950 1700
Wire Wire Line
	5050 1700 6350 1700
Wire Wire Line
	5050 1800 6500 1800
Wire Wire Line
	7100 1800 7100 1600
Wire Wire Line
	3600 1600 3600 1800
Wire Wire Line
	3600 1800 4200 1800
Wire Wire Line
	4200 1900 3500 1900
Wire Wire Line
	3500 1900 3500 1700
Wire Wire Line
	3500 1700 2300 1700
Wire Wire Line
	3400 1800 3400 2000
Wire Wire Line
	3400 2000 4200 2000
Wire Wire Line
	3300 1900 3300 2100
Wire Wire Line
	3300 2100 4200 2100
Wire Wire Line
	2200 1500 2200 1600
Wire Wire Line
	2200 1600 3600 1600
Wire Wire Line
	2300 1500 2300 1700
Wire Wire Line
	2400 1500 2400 1800
Wire Wire Line
	2400 1800 3400 1800
Wire Wire Line
	2500 1500 2500 1900
Wire Wire Line
	2500 1900 3300 1900
Wire Wire Line
	2600 1500 2600 2200
Wire Wire Line
	2600 2200 4200 2200
Wire Wire Line
	2700 1500 2700 2300
Wire Wire Line
	2700 2300 4200 2300
Wire Wire Line
	2800 1500 2800 2400
Wire Wire Line
	2900 1500 2900 2500
Wire Wire Line
	2200 1200 2300 1200
Wire Wire Line
	2300 1200 2400 1200
Wire Wire Line
	2400 1200 2500 1200
Wire Wire Line
	2500 1200 2600 1200
Wire Wire Line
	2600 1200 2700 1200
Wire Wire Line
	2700 1200 2800 1200
Wire Wire Line
	2800 1200 2900 1200
Wire Wire Line
	2900 1200 3250 1200
Wire Wire Line
	5900 4650 5900 4800
Wire Wire Line
	4500 4650 4500 4800
Wire Wire Line
	4200 4450 4200 3850
Wire Wire Line
	5600 4450 5600 3700
Wire Wire Line
	5600 3700 5200 3700
Wire Wire Line
	4650 3700 4650 3300
Wire Wire Line
	4100 4250 4500 4250
Wire Wire Line
	3500 4250 3450 4250
Wire Wire Line
	3450 4250 3450 3800
Wire Wire Line
	3650 3800 3450 3800
Wire Wire Line
	3950 3800 4100 3800
Wire Wire Line
	4100 3800 4100 4250
Wire Wire Line
	4700 3900 4700 4250
Wire Wire Line
	4700 4250 4800 4250
Wire Wire Line
	4950 3900 4800 3900
Wire Wire Line
	4800 3900 4800 4250
Wire Wire Line
	5250 3900 5400 3900
Wire Wire Line
	5400 3900 5400 4250
Wire Wire Line
	5400 4250 5900 4250
Wire Wire Line
	7600 2100 7600 2400
Wire Wire Line
	7600 2400 5050 2400
Wire Wire Line
	7600 2100 8950 2100
Wire Wire Line
	5000 3700 4650 3700
Wire Wire Line
	4200 3650 4200 3400
Wire Wire Line
	3650 5600 3500 5600
Wire Wire Line
	3500 5600 3500 5050
Wire Wire Line
	4950 5550 4800 5550
Wire Wire Line
	4800 5550 4800 5050
Wire Wire Line
	3950 5600 4100 5600
Wire Wire Line
	3750 5600 3750 5350
Wire Wire Line
	3750 5350 4100 5350
Wire Wire Line
	4100 5350 4100 5150
Wire Wire Line
	3850 5600 3850 5450
Wire Wire Line
	3850 5450 4200 5450
Wire Wire Line
	4200 5450 4200 4950
Wire Wire Line
	4200 4950 4100 4950
Wire Wire Line
	5250 5550 5450 5550
Wire Wire Line
	5050 5550 5050 5350
Wire Wire Line
	5050 5350 5400 5350
Wire Wire Line
	5400 5350 5400 5150
Wire Wire Line
	5150 5550 5150 5450
Wire Wire Line
	5150 5450 5500 5450
Wire Wire Line
	5500 5450 5500 4950
Wire Wire Line
	5500 4950 5400 4950
Wire Wire Line
	4800 4650 4800 5050
Wire Wire Line
	5400 4550 5500 4550
Wire Wire Line
	5500 4550 5500 4950
Wire Wire Line
	5400 5150 5400 5050
Wire Wire Line
	5400 5050 5450 5050
Wire Wire Line
	5450 5050 5450 4750
Wire Wire Line
	5450 4750 5400 4750
Wire Wire Line
	4100 5150 4150 5150
Wire Wire Line
	4150 5150 4150 4750
Wire Wire Line
	4150 4750 4100 4750
Wire Wire Line
	4200 4950 4200 4550
Wire Wire Line
	4200 4550 4100 4550
Wire Wire Line
	3500 5050 3500 4650
Wire Wire Line
	7200 5150 7200 5250
Wire Wire Line
	7200 4350 7200 4200
Wire Wire Line
	7200 4200 7950 4200
Wire Wire Line
	7950 4200 7950 4550
Wire Wire Line
	7950 4850 7950 5150
Wire Wire Line
	7950 5150 7200 5150
Wire Wire Line
	7100 4100 7100 4200
Wire Wire Line
	6700 4550 6700 3800
Wire Wire Line
	6700 3800 7200 3800
Wire Wire Line
	7200 1700 7200 3800
Wire Wire Line
	6700 4650 6600 4650
Wire Wire Line
	6600 4650 6600 3600
Wire Wire Line
	6600 3600 7100 3600
Wire Wire Line
	8750 1350 8750 2300
Wire Wire Line
	6350 1150 6350 1200
Wire Wire Line
	6350 1550 6350 1700
Wire Wire Line
	6350 1700 7200 1700
Wire Wire Line
	6500 1550 6500 1800
Wire Wire Line
	6500 1800 7100 1800
Wire Wire Line
	6350 1200 6500 1200
Wire Wire Line
	6500 1200 6500 1250
Wire Wire Line
	6350 1200 6350 1250
Wire Wire Line
	7100 4200 6500 4200
Wire Wire Line
	6350 4200 6350 4600
Wire Wire Line
	7100 4200 7100 4350
Wire Wire Line
	6350 5150 7200 5150
Wire Wire Line
	6350 4900 6350 5150
Wire Wire Line
	800  3100 800  1600
Wire Wire Line
	800  1600 2200 1600
Wire Wire Line
	1150 1700 2300 1700
Wire Wire Line
	1500 1800 2400 1800
Wire Wire Line
	1850 1900 2500 1900
Wire Wire Line
	900  2900 900  3000
Wire Wire Line
	900  3000 1250 3000
Wire Wire Line
	1250 3000 1250 3100
Wire Wire Line
	900  3000 900  3100
Wire Wire Line
	1250 3000 1600 3000
Wire Wire Line
	1600 3000 1600 3100
Wire Wire Line
	1600 3000 1950 3000
Wire Wire Line
	1950 3000 1950 3100
Wire Wire Line
	1000 3100 1000 3050
Wire Wire Line
	1000 3050 1350 3050
Wire Wire Line
	1350 3050 1350 3100
Wire Wire Line
	1350 3050 1700 3050
Wire Wire Line
	1700 3050 1700 3100
Wire Wire Line
	1700 3050 2050 3050
Wire Wire Line
	2050 3050 2050 3100
Wire Wire Line
	2050 3050 2150 3050
Wire Wire Line
	2150 3050 2150 3450
Wire Wire Line
	2800 2400 3000 2400
Wire Wire Line
	2900 2500 3350 2500
Wire Wire Line
	1150 1700 1150 3100
Wire Wire Line
	1500 1800 1500 3100
Wire Wire Line
	1850 1900 1850 3100
Wire Wire Line
	2300 3100 2300 2200
Wire Wire Line
	2300 2200 2600 2200
Wire Wire Line
	2650 3100 2650 2300
Wire Wire Line
	2650 2300 2700 2300
Wire Wire Line
	3000 3100 3000 2400
Wire Wire Line
	3000 2400 3800 2400
Wire Wire Line
	3350 3100 3350 2500
Wire Wire Line
	3350 2500 3950 2500
Wire Wire Line
	2150 3050 2500 3050
Wire Wire Line
	2500 3050 2500 3100
Wire Wire Line
	2500 3050 2850 3050
Wire Wire Line
	2850 3050 2850 3100
Wire Wire Line
	2850 3050 3200 3050
Wire Wire Line
	3200 3050 3200 3100
Wire Wire Line
	3200 3050 3550 3050
Wire Wire Line
	3550 3050 3550 3100
Wire Wire Line
	1950 3000 2400 3000
Wire Wire Line
	2400 3000 2400 3100
Wire Wire Line
	2400 3000 2750 3000
Wire Wire Line
	2750 3000 2750 3100
Wire Wire Line
	2750 3000 3100 3000
Wire Wire Line
	3100 3000 3100 3100
Wire Wire Line
	3100 3000 3450 3000
Wire Wire Line
	3450 3000 3450 3100
Wire Wire Line
	3950 1250 3950 1400
Wire Wire Line
	3250 1200 3250 1400
Wire Wire Line
	3250 1400 3950 1400
Wire Wire Line
	3950 1400 3950 1700
Wire Wire Line
	4200 3400 3800 3400
Wire Wire Line
	3800 3400 3800 2400
Wire Wire Line
	3800 2400 4200 2400
Wire Wire Line
	4650 3300 3950 3300
Wire Wire Line
	3950 3300 3950 2500
Wire Wire Line
	3950 2500 4200 2500
Connection ~ 9650 1500
Connection ~ 5150 2500
Connection ~ 8850 3400
Connection ~ 8850 2700
Connection ~ 5750 2000
Connection ~ 5750 2100
Connection ~ 7200 1700
Connection ~ 7100 1800
Connection ~ 2200 1600
Connection ~ 2300 1700
Connection ~ 2400 1800
Connection ~ 2500 1900
Connection ~ 2600 2200
Connection ~ 2700 2300
Connection ~ 2300 1200
Connection ~ 2400 1200
Connection ~ 2500 1200
Connection ~ 2600 1200
Connection ~ 2700 1200
Connection ~ 2800 1200
Connection ~ 2900 1200
Connection ~ 3450 3800
Connection ~ 4100 4250
Connection ~ 4800 4250
Connection ~ 5400 4250
Connection ~ 4800 5050
Connection ~ 5500 4950
Connection ~ 5400 5150
Connection ~ 4100 5150
Connection ~ 4200 4950
Connection ~ 3500 5050
Connection ~ 7200 5150
Connection ~ 6350 1700
Connection ~ 6500 1800
Connection ~ 6350 1200
Connection ~ 7100 4200
Connection ~ 900  3000
Connection ~ 1250 3000
Connection ~ 1600 3000
Connection ~ 1350 3050
Connection ~ 1700 3050
Connection ~ 2050 3050
Connection ~ 3000 2400
Connection ~ 3350 2500
Connection ~ 2150 3050
Connection ~ 2500 3050
Connection ~ 2850 3050
Connection ~ 3200 3050
Connection ~ 1950 3000
Connection ~ 2400 3000
Connection ~ 2750 3000
Connection ~ 3100 3000
Connection ~ 3950 1400
Connection ~ 3800 2400
Connection ~ 3950 2500
Wire Wire Line
	8950 2000 7800 2000
Wire Wire Line
	5050 2200 5850 2200
Wire Wire Line
	5850 2200 5850 1250
Wire Wire Line
	5150 2500 5750 2500
$Comp
L power:+5V #PWR0114
U 1 1 5B487BD7
P 5700 1250
F 0 "#PWR0114" H 5700 1100 50  0001 C CNN
F 1 "+5V" H 5700 1390 50  0000 C CNN
F 2 "NA" H 5700 1250 50  0001 C CNN
F 3 "NA" H 5700 1250 50  0001 C CNN
	1    5700 1250
	1    0    0    -1  
$EndComp
Wire Wire Line
	3950 1700 4200 1700
Wire Wire Line
	5700 1250 5400 1250
Wire Wire Line
	5400 1250 5300 1250
Wire Wire Line
	5300 1250 5300 1350
Connection ~ 5400 1250
Wire Wire Line
	5400 1250 5400 1350
Wire Wire Line
	5300 1250 5200 1250
Wire Wire Line
	5200 1250 5200 1350
Connection ~ 5300 1250
$Comp
L power:GND #PWR0115
U 1 1 5B543F8B
P 3950 2150
F 0 "#PWR0115" H 3950 1900 50  0001 C CNN
F 1 "GND" H 3950 2000 50  0000 C CNN
F 2 "NA" H 3950 2150 50  0001 C CNN
F 3 "NA" H 3950 2150 50  0001 C CNN
	1    3950 2150
	1    0    0    -1  
$EndComp
Wire Wire Line
	3950 2050 3950 2150
Wire Wire Line
	3950 1750 3950 1700
Connection ~ 3950 1700
Wire Wire Line
	6700 4950 6500 4950
Wire Wire Line
	6500 4950 6500 4200
Connection ~ 6500 4200
Wire Wire Line
	6500 4200 6350 4200
Wire Wire Line
	5850 1250 5700 1250
Connection ~ 5700 1250
Wire Wire Line
	5050 2100 5200 2100
Wire Wire Line
	5050 1900 5400 1900
Wire Wire Line
	5050 2000 5300 2000
Wire Wire Line
	5400 1650 5400 1900
Connection ~ 5400 1900
Wire Wire Line
	5400 1900 5550 1900
Wire Wire Line
	5200 1650 5200 2100
Connection ~ 5200 2100
Wire Wire Line
	5200 2100 5550 2100
Wire Wire Line
	5300 1650 5300 2000
Connection ~ 5300 2000
Wire Wire Line
	5300 2000 5550 2000
$EndSCHEMATC
